{
  "name": "ESP32 HW Timer wrapper",
  "keywords": "timer",
  "description": "Wrapper for HW timer functions on the ESP32",
  "repository":
  {
    "type": "git",
    "url": "https://beegee1962@bitbucket.org/beegee1962/esp32_hw_timer.git"
  },
  "version": "1.0.0",
  "frameworks": "arduino",
  "platforms": "ESP32",
  "license": "GPL-3.0-only",
  "homepage": "https://desire.giesecke.tk/index.php/2018/04/22/using-the-hw-timers-of-the-esp32/"
}
